Rows = 0.0000, 0.1481, 0.0185, 0.0247, 0.0864, 0.1111, 0.1111, 0.0000, 0.1111, 0.1420, 0.0864, 0.1605, 3.0000, 3.0000, 0.6027, 
Image W=39, H=72
Position = 1
Rows = 0.1324, 0.0594, 0.0822, 0.1324, 0.0594, 0.0913, 0.0822, 0.0000, 0.0822, 0.1324, 0.0594, 0.0868, 0.0000, 2.0000, 0.5417, 
Image W=42, H=72
Position = 2
Rows = 0.1418, 0.1045, 0.1269, 0.1343, 0.0000, 0.0000, 0.1343, 0.0000, 0.0000, 0.1418, 0.1045, 0.1119, 3.0000, 5.0000, 0.5833, 
Image W=39, H=72
Position = 3
Rows = 0.1510, 0.0677, 0.0938, 0.0938, 0.0000, 0.0938, 0.0938, 0.0000, 0.0938, 0.1510, 0.0677, 0.0938, 0.0000, 0.0000, 0.5417, 
Image W=40, H=72
Position = 4
Rows = 0.1559, 0.0699, 0.0753, 0.1559, 0.0699, 0.0753, 0.0968, 0.0000, 0.0000, 0.1559, 0.0699, 0.0753, 3.0000, 1.0000, 0.5556, 
Image W=40, H=73
Position = 5
Rows = 0.2071, 0.0929, 0.1000, 0.2071, 0.0929, 0.0357, 0.1286, 0.0000, 0.0000, 0.1357, 0.0000, 0.0000, 3.0000, 1.0000, 0.5479, 
Image W=39, H=72
Position = 6
Rows = 0.1235, 0.0802, 0.1111, 0.1111, 0.0000, 0.0000, 0.1111, 0.0062, 0.1358, 0.1173, 0.0802, 0.1235, 2.0000, 0.0000, 0.5417, 
Image W=39, H=74
Position = 7
Rows = 0.0984, 0.0000, 0.0984, 0.0984, 0.0000, 0.0984, 0.1585, 0.0710, 0.1585, 0.1093, 0.0000, 0.1093, 4.0000, 2.0000, 0.5270, 
Image W=1, H=74
Position = 8
Rows = 0.0000, 0.0000, 0.2432, 0.0000, 0.0000, 0.2432, 0.0000, 0.0000, 0.2432, 0.0000, 0.0000, 0.2703, 2.0000, 0.0000, 0.0135, 
Image W=29, H=77
Position = 9
Rows = 0.0000, 0.0000, 0.2021, 0.0000, 0.0000, 0.2021, 0.0000, 0.0000, 0.2021, 0.1277, 0.0957, 0.1702, 3.0000, 1.0000, 0.3766, 
Image W=41, H=79
Position = 10
Rows = 0.1076, 0.0380, 0.1076, 0.1835, 0.0570, 0.0000, 0.1772, 0.0506, 0.0000, 0.1203, 0.0506, 0.1076, 4.0000, 4.0000, 0.5190, 
Image W=35, H=76
Position = 11
Rows = 0.1743, 0.0000, 0.0000, 0.1743, 0.0000, 0.0000, 0.1743, 0.0000, 0.0000, 0.2569, 0.1009, 0.1193, 2.0000, 0.0000, 0.4605, 
Image W=39, H=74
Position = 12
Rows = 0.0874, 0.0000, 0.0874, 0.1505, 0.0000, 0.1505, 0.0922, 0.1311, 0.0971, 0.0971, 0.0097, 0.0971, 5.0000, 5.0000, 0.5270, 
Image W=39, H=74
Position = 13
Rows = 0.1122, 0.0000, 0.0918, 0.1173, 0.0663, 0.0918, 0.0918, 0.0663, 0.1173, 0.1020, 0.0000, 0.1429, 4.0000, 4.0000, 0.5270, 
Image W=39, H=72
Position = 14
Rows = 0.1092, 0.0747, 0.1092, 0.1034, 0.0000, 0.1034, 0.1034, 0.0000, 0.1034, 0.1092, 0.0747, 0.1092, 0.0000, 0.0000, 0.5417, 
Image W=39, H=73
Position = 15
Rows = 0.1790, 0.0802, 0.1235, 0.1111, 0.0123, 0.1296, 0.1790, 0.0679, 0.0000, 0.1173, 0.0000, 0.0000, 1.0000, 1.0000, 0.5342, 
Image W=42, H=76
Position = 16
Rows = 0.1550, 0.0700, 0.0950, 0.1550, 0.0700, 0.0850, 0.0950, 0.0750, 0.0200, 0.0800, 0.0000, 0.1000, 2.0000, 4.0000, 0.5526, 
Image W=40, H=72
Position = 17
Rows = 0.1325, 0.0861, 0.1258, 0.1325, 0.0596, 0.0000, 0.0000, 0.0265, 0.1391, 0.0795, 0.0861, 0.1325, 3.0000, 3.0000, 0.5556, 
Image W=40, H=73
Position = 18
Rows = 0.1171, 0.2613, 0.1261, 0.0000, 0.1622, 0.0000, 0.0000, 0.1622, 0.0000, 0.0000, 0.1712, 0.0000, 3.0000, 1.0000, 0.5479, 
Image W=39, H=73
Position = 19
Rows = 0.1125, 0.0000, 0.1125, 0.1125, 0.0000, 0.1125, 0.1125, 0.0000, 0.1125, 0.1188, 0.0813, 0.1250, 2.0000, 0.0000, 0.5342, 
Image W=40, H=76
Position = 20
Rows = 0.1159, 0.0000, 0.1449, 0.1377, 0.0000, 0.1377, 0.1377, 0.0870, 0.0507, 0.0072, 0.1812, 0.0000, 3.0000, 1.0000, 0.5263, 
Image W=38, H=74
Position = 21
Rows = 0.0881, 0.0000, 0.0933, 0.0933, 0.1192, 0.0933, 0.1244, 0.0415, 0.1399, 0.1036, 0.0000, 0.1036, 5.0000, 5.0000, 0.5135, 
Image W=45, H=80
Position = 22
Rows = 0.1111, 0.0000, 0.1438, 0.0327, 0.1895, 0.0131, 0.0392, 0.1765, 0.0196, 0.1373, 0.0000, 0.1373, 4.0000, 2.0000, 0.5625, 
Image W=40, H=77
Position = 23
Rows = 0.1429, 0.0000, 0.1964, 0.1071, 0.2054, 0.0000, 0.0000, 0.1696, 0.0000, 0.0000, 0.1786, 0.0000, 3.0000, 1.0000, 0.5195, 
Image W=40, H=72
Position = 24
Rows = 0.0897, 0.0897, 0.1862, 0.0000, 0.0759, 0.0483, 0.0483, 0.0759, 0.0000, 0.2000, 0.0897, 0.0966, 3.0000, 3.0000, 0.5556, 